…
Usage
-----

`prisonbrief` is quite simple to use. The package contains only three
functions, all of them starting with `wpb`, a mnemonic for World Prison
Brief.

The first is a convenience function named `wpb_list()`. It prints a list
of available countries to the console.

    library(prisonbrief)
    #> Warning: package 'prisonbrief' was built under R version 4.0.2

    wpb_list()
    #> # A tibble: 226 x 2
    #>    country_name              country_url            
    #>    <chr>                     <chr>                  
    #>  1 Afghanistan               afghanistan            
    #>  2 Albania                   albania                
    #>  3 Algeria                   algeria                
    #>  4 American Samoa  (USA)     american-samoa-usa     
    #>  5 Andorra                   andorra                
    #>  6 Angola                    angola                 
    #>  7 Anguilla (United Kingdom) anguilla-united-kingdom
    #>  8 Antigua and Barbuda       antigua-and-barbuda    
    #>  9 Argentina                 argentina              
    #> 10 Armenia                   armenia                
    #> # … with 216 more rows
…
